admin	1234	1	high_admin	True
qwerty	123	2	low_admin	True
Shadow	987654321	3	low_admin	True
user1	12345	4	top	True
user2	23456	5	top	True
user3	34567	6	trust	True
user4	45678	7	trust	True
user5	56789	8	untrust	True
user6	67890	9	untrust	True
papa	132341	101	trust	True
